%YAML 1.1
%TAG !u! tag:unity3d.com,2011:
--- !u!74 &7400000
AnimationClip:
  m_ObjectHideFlags: 0
  m_CorrespondingSourceObject: {fileID: 0}
  m_PrefabInstance: {fileID: 0}
  m_PrefabAsset: {fileID: 0}
  m_Name: Player unsheathing
  serializedVersion: 6
  m_Legacy: 0
  m_Compressed: 0
  m_UseHighQualityCurve: 1
  m_RotationCurves: []
  m_CompressedRotationCurves: []
  m_EulerCurves: []
  m_PositionCurves: []
  m_ScaleCurves: []
  m_FloatCurves: []
  m_PPtrCurves:
  - curve:
    - time: 0
      value: {fileID: 9040997885469940102, guid: 388e5855277603c4dbf7960f82fab8c4,
        type: 3}
    - time: 0.25
      value: {fileID: 2569123923754405798, guid: 388e5855277603c4dbf7960f82fab8c4,
        type: 3}
    - time: 0.5833333
      value: {fileID: -5380335630342030091, guid: 388e5855277603c4dbf7960f82fab8c4,
        type: 3}
    - time: 0.8333333
      value: {fileID: -5584839730304934120, guid: 388e5855277603c4dbf7960f82fab8c4,
        type: 3}
    - time: 1.05
      value: {fileID: -2811899264422158300, guid: 388e5855277603c4dbf7960f82fab8c4,
        type: 3}
    - time: 1.2333333
      value: {fileID: -2318755508565964163, guid: 388e5855277603c4dbf7960f82fab8c4,
        type: 3}
    - time: 1.4833333
      value: {fileID: 5535055888167236427, guid: 388e5855277603c4dbf7960f82fab8c4,
        type: 3}
    - time: 1.9833333
      value: {fileID: 5535055888167236427, guid: 388e5855277603c4dbf7960f82fab8c4,
        type: 3}
    attribute: m_Sprite
    path: PlayerSprite
    classID: 212
    script: {fileID: 0}
  m_SampleRate: 60
  m_WrapMode: 0
  m_Bounds:
    m_Center: {x: 0, y: 0, z: 0}
    m_Extent: {x: 0, y: 0, z: 0}
  m_ClipBindingConstant:
    genericBindings:
    - serializedVersion: 2
      path: 533382794
      attribute: 0
      script: {fileID: 0}
      typeID: 212
      customType: 23
      isPPtrCurve: 1
    pptrCurveMapping:
    - {fileID: 9040997885469940102, guid: 388e5855277603c4dbf7960f82fab8c4, type: 3}
    - {fileID: 2569123923754405798, guid: 388e5855277603c4dbf7960f82fab8c4, type: 3}
    - {fileID: -5380335630342030091, guid: 388e5855277603c4dbf7960f82fab8c4, type: 3}
    - {fileID: -5584839730304934120, guid: 388e5855277603c4dbf7960f82fab8c4, type: 3}
    - {fileID: -2811899264422158300, guid: 388e5855277603c4dbf7960f82fab8c4, type: 3}
    - {fileID: -2318755508565964163, guid: 388e5855277603c4dbf7960f82fab8c4, type: 3}
    - {fileID: 5535055888167236427, guid: 388e5855277603c4dbf7960f82fab8c4, type: 3}
    - {fileID: 5535055888167236427, guid: 388e5855277603c4dbf7960f82fab8c4, type: 3}
  m_AnimationClipSettings:
    serializedVersion: 2
    m_AdditiveReferencePoseClip: {fileID: 0}
    m_AdditiveReferencePoseTime: 0
    m_StartTime: 0
    m_StopTime: 2
    m_OrientationOffsetY: 0
    m_Level: 0
    m_CycleOffset: 0
    m_HasAdditiveReferencePose: 0
    m_LoopTime: 0
    m_LoopBlend: 0
    m_LoopBlendOrientation: 0
    m_LoopBlendPositionY: 0
    m_LoopBlendPositionXZ: 0
    m_KeepOriginalOrientation: 0
    m_KeepOriginalPositionY: 1
    m_KeepOriginalPositionXZ: 0
    m_HeightFromFeet: 0
    m_Mirror: 0
  m_EditorCurves: []
  m_EulerEditorCurves: []
  m_HasGenericRootTransform: 0
  m_HasMotionFloatCurves: 0
  m_Events:
  - time: 0.26666668
    functionName: TriggerUnsheathingSound
    data: 
    objectReferenceParameter: {fileID: 0}
    floatParameter: 0
    intParameter: 0
    messageOptions: 0
